{
    "page": 1,
    "total_results": 2769,
    "total_pages": 139,
    "results": [
      {
        "popularity": 62.888,
        "vote_count": 13774,
        "video": false,
        "poster_path": "\/6FfCtAuVAW8XJjZ7eWeLibRLWTw.jpg",
        "id": 11,
        "adult": false,
        "backdrop_path": "\/kN0s7VCXZinNXP9qV0yDHOVrZn3.jpg",
        "original_language": "en",
        "original_title": "Star Wars",
        "genre_ids": [
          28,
          12,
          878
        ],
        "title": "Star Wars",
        "vote_average": 8.2,
        "overview": "Princess Leia is captured and held hostage by the evil Imperial forces in their effort to take over the galactic Empire. Venturesome Luke Skywalker and dashing captain Han Solo team together with the loveable robot duo R2-D2 and C-3PO to rescue the beautiful princess and restore peace and justice in the Empire.",
        "release_date": "1977-05-25"
      },
      {
        "popularity": 22.237,
        "vote_count": 7197,
        "video": false,
        "poster_path": "\/hN2ZtF3Uw6mhIHZiqL0SKzELtKn.jpg",
        "id": 13475,
        "adult": false,
        "backdrop_path": "\/zzzoRNVSaUv6e1hpADjUDeM3EvY.jpg",
        "original_language": "en",
        "original_title": "Star Trek",
        "genre_ids": [
          28,
          12,
          878
        ],
        "title": "Star Trek",
        "vote_average": 7.4,
        "overview": "The fate of the galaxy rests in the hands of bitter rivals. One, James Kirk, is a delinquent, thrill-seeking Iowa farm boy. The other, Spock, a Vulcan, was raised in a logic-based society that rejects all emotion. As fiery instinct clashes with calm reason, their unlikely but powerful partnership is the only thing capable of leading their crew through unimaginable danger, boldly going where no one has gone before. The human adventure has begun again.",
        "release_date": "2009-05-06"
      }
    ]
  }